PSYR6003 ASSIGNMENT2
…
In order include the binary sex of participants into our analysis we transformed this categorical variable into a factor variable. The binary sex variable was also mutated into a numerical format (“female” =0, “male” =1) using package “dplyr” (Wickham et al., 2019). Lastly, we reverse-coded the variable “tipm.CONS2.3y” prior to gathering descriptive statistics of the variables.

#To initialize the data we use the following lines of code

library(haven) #this package allows us to work with sav files
DAT<- read_sav("PSYR6003.A2.sav")#this puts the data set into an object

DATA<- na.omit(DAT)#omit missing cases

DATA<- filter(DATA, sex == "Male" | sex == "Female")#this excludes the case "Other (specify)"
DATA<- na.omit(DATA)
print(DATA)#this runs the data and ensures it is working after the changesS

# A tibble: 131 × 21
   RespondentId sex    mps.SPP1.3y mps.SPP2.3y mps.SPP3.3y mps.SPP4.3y
   <chr>        <chr>        <dbl>       <dbl>       <dbl>       <dbl>
 1 4561355      Female           1           1           1           1
 2 4561556      Female           1           5           1           1
 3 4198369      Male             5           1           1           4
 4 4590305      Female           1           3           4           1
 5 4554366      Female           2           6           3           1
 6 4598695      Female           1           7           1           7
 7 4005938      Female           4           3           1           1
 8 4563966      Female           3           5           3           5
 9 4213635      Female           2           5           1           1
10 4556259      Female           2           5           1           1
# ℹ 121 more rows
# ℹ 15 more variables: mps.SPP5.3y <dbl>, guilt1.3y <dbl>, guilt2.3y <dbl>,
#   guilt3.3y <dbl>, dep1.3y <dbl>, dep2.3y <dbl>, dep3.3y <dbl>,
#   fear1.3y <dbl>, fear2.3y <dbl>, fear3.3y <dbl>, host1.3y <dbl>,
#   host2.3y <dbl>, host3.3y <dbl>, tipm.CONS1.3y <dbl>, tipm.CONS2.3y <dbl>

is.factor(DATA$sex)

[1] FALSE

#To check if the variable "sex" is a factor variable; which it is not, so we must transform it
DATA$sex <- factor(DATA$sex)
#this transform the string variable into a factor
print(DATA)#this allows us to visualize the change

# A tibble: 131 × 21
   RespondentId sex    mps.SPP1.3y mps.SPP2.3y mps.SPP3.3y mps.SPP4.3y
   <chr>        <fct>        <dbl>       <dbl>       <dbl>       <dbl>
 1 4561355      Female           1           1           1           1
 2 4561556      Female           1           5           1           1
 3 4198369      Male             5           1           1           4
 4 4590305      Female           1           3           4           1
 5 4554366      Female           2           6           3           1
 6 4598695      Female           1           7           1           7
 7 4005938      Female           4           3           1           1
 8 4563966      Female           3           5           3           5
 9 4213635      Female           2           5           1           1
10 4556259      Female           2           5           1           1
# ℹ 121 more rows
# ℹ 15 more variables: mps.SPP5.3y <dbl>, guilt1.3y <dbl>, guilt2.3y <dbl>,
#   guilt3.3y <dbl>, dep1.3y <dbl>, dep2.3y <dbl>, dep3.3y <dbl>,
#   fear1.3y <dbl>, fear2.3y <dbl>, fear3.3y <dbl>, host1.3y <dbl>,
#   host2.3y <dbl>, host3.3y <dbl>, tipm.CONS1.3y <dbl>, tipm.CONS2.3y <dbl>
…
